{
    "apiVersion":"v1",
    "items":[
       {
          "apiVersion":"networking.k8s.io/v1",
          "kind":"Ingress",
          "metadata":{
             "annotations":{
                "ingress.kubernetes.io/backends":"{\"k8s-be-30193--8eaeff33deb8ba29\":\"HEALTHY\",\"k8s1-8eaeff33-default-vscode-service-8085-8085-394c1c23\":\"HEALTHY\",\"k8s1-8eaeff33-default-vscode-service-8086-8086-d00549bd\":\"Unknown\",\"k8s1-8eaeff33-default-vscode-service-8087-8087-1c50577b\":\"Unknown\",\"k8s1-8eaeff33-default-vscode-service-9090-9090-5f4d3cfe\":\"Unknown\"}",
                "ingress.kubernetes.io/forwarding-rule":"k8s2-fr-xhgbxt0e-default-vscode-ingress-67gkocbm",
                "ingress.kubernetes.io/rewrite-target":"/",
                "ingress.kubernetes.io/target-proxy":"k8s2-tp-xhgbxt0e-default-vscode-ingress-67gkocbm",
                "ingress.kubernetes.io/url-map":"k8s2-um-xhgbxt0e-default-vscode-ingress-67gkocbm",
                "kubectl.kubernetes.io/last-applied-configuration":"{\"apiVersion\":\"extensions/v1beta1\",\"kind\":\"Ingress\",\"metadata\":{\"annotations\":{\"ingress.kubernetes.io/rewrite-target\":\"/\",\"kubernetes.io/ingress.global-static-ip-name\":\"vscode-ingress-ip\"},\"name\":\"vscode-ingress\",\"namespace\":\"default\"},\"spec\":{\"rules\":[{\"http\":{\"paths\":[{\"backend\":{\"serviceName\":\"vscode-service-8085\",\"servicePort\":8085},\"path\":\"/proxy/8085/*\"},{\"backend\":{\"serviceName\":\"vscode-service-8086\",\"servicePort\":8086},\"path\":\"/proxy/8086/*\"},{\"backend\":{\"serviceName\":\"vscode-service-8087\",\"servicePort\":8087},\"path\":\"/proxy/8087/*\"},{\"backend\":{\"serviceName\":\"vscode-service-9090\",\"servicePort\":9090},\"path\":\"/proxy/9090/*\"}]}}]}}\n",
                "kubernetes.io/ingress.global-static-ip-name":"vscode-ingress-ip"
             },
             "creationTimestamp":"2021-06-09T12:15:16Z",
             "finalizers":[
                "networking.gke.io/ingress-finalizer-V2"
             ],
             "generation":8,
             "managedFields":[
                {
                   "apiVersion":"extensions/v1beta1",
                   "fieldsType":"FieldsV1",
                   "fieldsV1":{
                      "f:metadata":{
                         "f:annotations":{
                            ".":{

                            },
                            "f:ingress.kubernetes.io/rewrite-target":{

                            },
                            "f:kubectl.kubernetes.io/last-applied-configuration":{

                            },
                            "f:kubernetes.io/ingress.global-static-ip-name":{

                            }
                         }
                      },
                      "f:spec":{
                         "f:rules":{

                         }
                      }
                   },
                   "manager":"kubectl",
                   "operation":"Update",
                   "time":"2021-06-09T12:15:16Z"
                },
                {
                   "apiVersion":"networking.k8s.io/v1beta1",
                   "fieldsType":"FieldsV1",
                   "fieldsV1":{
                      "f:metadata":{
                         "f:annotations":{
                            "f:ingress.kubernetes.io/backends":{

                            },
                            "f:ingress.kubernetes.io/forwarding-rule":{

                            },
                            "f:ingress.kubernetes.io/target-proxy":{

                            },
                            "f:ingress.kubernetes.io/url-map":{

                            }
                         },
                         "f:finalizers":{
                            ".":{

                            },
                            "v:\"networking.gke.io/ingress-finalizer-V2\"":{

                            }
                         }
                      },
                      "f:status":{
                         "f:loadBalancer":{
                            "f:ingress":{

                            }
                         }
                      }
                   },
                   "manager":"glbc",
                   "operation":"Update",
                   "time":"2021-06-09T12:15:52Z"
                }
             ],
             "name":"vscode-ingress",
             "namespace":"default",
             "resourceVersion":"5660021",
             "selfLink":"/apis/networking.k8s.io/v1/namespaces/default/ingresses/vscode-ingress",
             "uid":"db09505d-86e8-4934-adae-42bc6066fbde"
          },
          "spec":{
             "rules":[
                {
                   "http":{
                      "paths":[
                         {
                            "backend":{
                               "service":{
                                  "name":"vscode-service-8085",
                                  "port":{
                                     "number":8085
                                  }
                               }
                            },
                            "path":"/proxy/8085/*",
                            "pathType":"ImplementationSpecific"
                         },
                         {
                            "backend":{
                               "service":{
                                  "name":"vscode-service-8086",
                                  "port":{
                                     "number":8086
                                  }
                               }
                            },
                            "path":"/proxy/8086/*",
                            "pathType":"ImplementationSpecific"
                         },
                         {
                            "backend":{
                               "service":{
                                  "name":"vscode-service-8087",
                                  "port":{
                                     "number":8087
                                  }
                               }
                            },
                            "path":"/proxy/8087/*",
                            "pathType":"ImplementationSpecific"
                         },
                         {
                            "backend":{
                               "service":{
                                  "name":"vscode-service-9090",
                                  "port":{
                                     "number":9090
                                  }
                               }
                            },
                            "path":"/proxy/9090/*",
                            "pathType":"ImplementationSpecific"
                         }
                      ]
                   }
                }
             ]
          },
          "status":{
             "loadBalancer":{
                "ingress":[
                   {
                      "ip":"34.117.236.206"
                   }
                ]
             }
          }
       }
    ],
    "kind":"List",
    "metadata":{
       "resourceVersion":"",
       "selfLink":""
    }
 }